Find Free Versions of Scholarly Publications via Unpaywall • rOpenSci: roadoi
…
Calling Unpaywall

Now let’s call Unpaywall and store the results in oa_df:

oa_df <- roadoi::oadoi_fetch(random_dois, 
                             email = "najko.jahn@gmail.com")

Analysis

roadoi returns the data in a consistent structure improved for further analysis in R.

oa_df
#> # A tibble: 50 x 21
#>    doi   best_oa_location oa_locations oa_locations_em… data_standard is_oa
#>    <chr> <list>           <list>       <list>                   <int> <lgl>
#>  1 10.1… <tibble [0 × 0]> <tibble [0 … <tibble [0 × 0]>             2 FALSE
#>  2 10.1… <tibble [0 × 0]> <tibble [0 … <tibble [0 × 0]>             2 FALSE
#>  3 10.1… <tibble [0 × 0]> <tibble [0 … <tibble [0 × 0]>             2 FALSE
#>  4 10.1… <tibble [0 × 0]> <tibble [0 … <tibble [0 × 0]>             2 FALSE
#>  5 10.1… <tibble [0 × 0]> <tibble [0 … <tibble [0 × 0]>             2 FALSE
#>  6 10.1… <tibble [0 × 0]> <tibble [0 … <tibble [0 × 0]>             2 FALSE
#>  7 10.1… <tibble [0 × 0]> <tibble [0 … <tibble [0 × 0]>             2 FALSE
#>  8 10.1… <tibble [0 × 0]> <tibble [0 … <tibble [0 × 0]>             2 FALSE
#>  9 10.1… <tibble [0 × 0]> <tibble [0 … <tibble [0 × 0]>             2 FALSE
#> 10 10.1… <tibble [1 × 8]> <tibble [1 … <tibble [0 × 0]>             2 TRUE 
#> # … with 40 more rows, and 15 more variables: is_paratext <lgl>, genre <chr>,
#> #   oa_status <chr>, has_repository_copy <lgl>, journal_is_oa <lgl>,
#> #   journal_is_in_doaj <lgl>, journal_issns <chr>, journal_issn_l <chr>,
#> #   journal_name <chr>, publisher <chr>, published_date <chr>, year <chr>,
#> #   title <chr>, updated_resource <chr>, authors <list>
…
